Descarga la información de la Base de Base de Datos Nacional de Subvenciones (BDNS) • subvencionesES
…
# install.packages("devtools")
devtools::install_github("dadosdelaplace/Rsubvenciones_spain",
                         ref = "rpak")

Ejemplo

Carga convocatorias:

library(subvencionesES)

convocatorias <- carga_convocatorias()

convocatorias
#> # A tibble: 350,078 x 13
#>    IDConv id     mrr   convocanteN1  convocanteN2 convocanteN3 fechareg   titulo
#>    <chr>  <chr>  <lgl> <chr>         <chr>        <chr>        <date>     <chr> 
#>  1 819060 617500 FALSE DIPUTACIÓN P~ DIPUTACIÓN ~ <NA>         2022-03-25 ADQUI~
#>  2 819059 617499 FALSE REGIÓN DE MU~ INSTITUTO M~ <NA>         2022-03-25 MANCO~
#>  3 819058 617498 FALSE ONDA          AYUNTAMIENT~ <NA>         2022-03-25 Conve~
#>  4 819057 617497 FALSE TORRENT       AYUNTAMIENT~ <NA>         2022-03-25 SUBVE~
#>  5 819056 617496 FALSE REGIÓN DE MU~ INSTITUTO M~ <NA>         2022-03-25 AYUNT~
#>  6 819055 617495 FALSE ONDA          AYUNTAMIENT~ <NA>         2022-03-25 Conve~
#>  7 819054 617494 FALSE TORRENT       AYUNTAMIENT~ <NA>         2022-03-25 ASIGN~
#>  8 819052 617492 FALSE REGIÓN DE MU~ INSTITUTO M~ <NA>         2022-03-25 AYUNT~
#>  9 819051 617491 FALSE ONDA          AYUNTAMIENT~ <NA>         2022-03-25 Conve~
#> 10 819050 617490 FALSE ARAGÓN        INSTITUTO A~ <NA>         2022-03-25 CONVE~
#> # ... with 350,068 more rows, and 5 more variables: bbreguladoras <chr>,
#> #   tituloleng <chr>, verConcesiones <lgl>, dummy1 <dbl>, dummy2 <dbl>

Carga subvenciones (archivos jurídicas):

subvenciones <- carga_subvenciones()

subvenciones
#> # A tibble: 3,810,368 x 17
#>    ID       IDConv convocanteN1           convocanteN2 convocanteN3 convocatoria
#>    <chr>    <chr>  <chr>                  <chr>        <chr>        <chr>       
#>  1 65045185 811910 COMARCA COMUNIDAD DE ~ COMARCA DE ~ <NA>         CONVOCATORI~
#>  2 65045222 811910 COMARCA COMUNIDAD DE ~ COMARCA DE ~ <NA>         CONVOCATORI~
#>  3 65045266 811910 COMARCA COMUNIDAD DE ~ COMARCA DE ~ <NA>         CONVOCATORI~
#>  4 65045280 811910 COMARCA COMUNIDAD DE ~ COMARCA DE ~ <NA>         CONVOCATORI~
#>  5 65042893 818661 DIPUTACIÓN PROV. DE B~ DIPUTACIÓN ~ <NA>         CONVOCATORI~
#>  6 65042591 818652 DIPUTACIÓN PROV. DE B~ DIPUTACIÓN ~ <NA>         CONVOCATORI~
#>  7 65043828 749877 BURJASSOT              AYUNTAMIENT~ <NA>         CONCESIÓN Y~
#>  8 65044522 798146 BURJASSOT              AYUNTAMIENT~ <NA>         APROBACIÓN ~
#>  9 65053424 794733 LA RIOJA               CONSEJERÍA ~ <NA>         Ayudas proy~
#> 10 65053427 794733 LA RIOJA               CONSEJERÍA ~ <NA>         Ayudas proy~
#> # ... with 3,810,358 more rows, and 11 more variables: bbreguladoras <chr>,
#> #   programa <chr>, fechaconc <date>, beneficiario <chr>, importe <dbl>,
#> #   instrumento <chr>, ayudaequiv <dbl>, detalles <dbl>, proyecto <chr>,
#> #   sancion <dbl>, numcov <dbl>
…
