Valida CIFs — valida_cif • subvencionesES
…
# Para carga completa usar:
# sub <- carga_subvenciones()

library(dplyr)

nifs <- sub %>%
  extrae_cif(append = FALSE) %>%
  mutate(valid = valida_cif(cif_beneficiario))

nifs
#> # A tibble: 5,000 × 3
#>    cif_beneficiario nombre_beneficiario                                    valid
#>    <chr>            <chr>                                                  <lgl>
#>  1 P4407400C        AYUNTAMIENTO DE CEDRILLAS                              TRUE 
#>  2 P4427500F        AYUNTAMIENTO DE VILLARQUEMADO                          TRUE 
#>  3 P4422100J        AYUNTAMIENTO DE SANTA EULALIA DEL CAMPO                TRUE 
#>  4 P4407600H        AYUNTAMIENTO DE CELLA                                  TRUE 
#>  5 G06330500        CLUB DEPORTIVO EXTREMADURA FEMENINO CF                 TRUE 
#>  6 P0601100A        ALMENDRALEJO, AYUNTAMIENTO                             TRUE 
#>  7 G98545486        ASOCIACION CULTURAL ANDALUZA DE BURJASSOT AL ANDALUS … TRUE 
#>  8 G98943236        CLUB DE PATINATGE ARTISTIC RODAMENTS BURJASSOT         TRUE 
#>  9 G26324525        ASOC INVEST DESARR INNOV SECTOR AGROALIM               TRUE 
#> 10 G26324525        ASOC INVEST DESARR INNOV SECTOR AGROALIM               TRUE 
#> # … with 4,990 more rows
…
